Lab7/ttl.vcd
$date
	Thu Nov 22 19:19:26 2018
$end
$version
	Icarus Verilog
$end
$timescale
	1s
$end
$scope module test_bench $end
$var wire 3 ! t_s [0:2] $end
$var wire 1 " t_Z_BAR $end
$var reg 1 # t_X $end
$var reg 1 $ t_clk $end
$var reg 1 % t_reset $end
$var integer 32 & cew_Error_Count [31:0] $end
$var integer 32 ' cew_Test_Count [31:0] $end
$scope module cut $end
$var wire 1 ( TD $end
$var wire 1 # X $end
$var wire 1 $ clk $end
$var wire 1 % reset $end
$var wire 3 ) state [0:2] $end
$var wire 1 " Z_BAR $end
$var wire 1 * TC $end
$var wire 1 + TB $end
$var wire 1 , TA $end
$var wire 1 - QD_BAR $end
$var wire 1 . QD $end
$var wire 1 / QC_BAR $end
$var wire 1 0 QC $end
$var wire 1 1 QB_BAR $end
$var wire 1 2 QB $end
$var wire 1 3 QA_BAR $end
$var wire 1 4 QA $end
$var wire 1 5 I1 $end
$scope module jkff1 $end
$var wire 1 $ P1 $end
$var wire 1 6 P13 $end
$var wire 1 7 P2 $end
$var wire 1 % P3 $end
$var wire 1 8 P5 $end
$var wire 1 $ P6 $end
$var wire 1 9 P7 $end
$var wire 1 % P8 $end
$var wire 1 + P9 $end
$var wire 1 , P4 $end
$var wire 1 , P16 $end
$var wire 1 + P12 $end
$var reg 1 1 P10 $end
$var reg 1 2 P11 $end
$var reg 1 3 P14 $end
$var reg 1 4 P15 $end
$var reg 1 : master1 $end
$var reg 1 ; master2 $end
$upscope $end
$scope module jkff2 $end
$var wire 1 $ P1 $end
$var wire 1 ( P12 $end
$var wire 1 < P13 $end
$var wire 1 % P2 $end
$var wire 1 = P3 $end
$var wire 1 > P5 $end
$var wire 1 $ P6 $end
$var wire 1 ? P7 $end
$var wire 1 % P8 $end
$var wire 1 ( P9 $end
$var wire 1 * P4 $end
$var wire 1 * P16 $end
$var reg 1 - P10 $end
$var reg 1 . P11 $end
$var reg 1 / P14 $end
$var reg 1 0 P15 $end
$var reg 1 @ master1 $end
$var reg 1 A master2 $end
$upscope $end
$scope module or_gates $end
$var wire 1 # P1 $end
$var wire 1 B P10 $end
$var wire 1 C P12 $end
$var wire 1 D P13 $end
$var wire 1 E P14 $end
$var wire 1 0 P2 $end
$var wire 1 1 P4 $end
$var wire 1 # P5 $end
$var wire 1 F P7 $end
$var wire 1 G P9 $end
$var reg 1 H P11 $end
$var reg 1 " P3 $end
$var reg 1 5 P6 $end
$var reg 1 I P8 $end
$upscope $end
$scope module xor_gates $end
$var wire 1 # P1 $end
$var wire 1 5 P10 $end
$var wire 1 J P12 $end
$var wire 1 K P13 $end
$var wire 1 L P14 $end
$var wire 1 4 P2 $end
$var wire 1 4 P4 $end
$var wire 1 2 P5 $end
$var wire 1 M P7 $end
$var wire 1 0 P9 $end
$var reg 1 N P11 $end
$var reg 1 , P3 $end
$var reg 1 + P6 $end
$var reg 1 * P8 $end
$upscope $end
$upscope $end
$scope task clockTick $end
$upscope $end
$scope task setState $end
$var reg 3 O x [0:2] $end
$upscope $end
$upscope $end
$enddefinitions $end
#0
$dumpvars
b1 O
0N
0M
1L
0K
0J
0I
0H
0G
0F
1E
0D
0C
0B
xA
x@
1?
1>
1=
0<
x;
x:
19
18
17
06
x5
x4
x3
x2
x1
x0
x/
x.
x-
x,
x+
x*
bx )
z(
b1 '
b0 &
1%
x$
x#
x"
bx !
$end
#1
0*
15
0+
1"
0;
11
02
0:
13
04
0A
1-
0.
1@
0/
b1 !
b1 )
10
0%
#2
1%
#3
0,
0#
b10 '
#4
0$
b11 '
#7
1$
#13
0$
#16
b100 '
#17
0%
#18
1%
#19
1,
1#
#20
b101 '
#23
1:
1$
#29
1+
0,
03
b101 !
b101 )
14
0$
#32
b101 O
b110 '
#33
0+
1,
0:
13
b1 !
b1 )
04
0%
#34
1%
#38
1:
1$
#44
1+
0,
03
b101 !
b101 )
14
0$
#47
1,
0#
b111 '
#48
b1000 '
#51
1;
0:
1$
#57
1*
05
0,
01
12
13
b11 !
b11 )
04
0$
#60
b1001 '
#61
0*
15
0+
0;
11
b1 !
b1 )
02
0%
#62
1%
#63
1,
1#
#66
1:
1$
#72
1+
0,
03
b101 !
b101 )
14
0$
#76
b1010 '
#79
1;
1$
#85
0+
01
b111 !
b111 )
12
0$
#88
b111 O
b1011 '
#89
1,
0;
11
02
0:
13
b1 !
b1 )
04
0%
#90
1%
#94
1:
1$
#100
1+
0,
03
b101 !
b101 )
14
0$
#106
1;
1$
#112
0+
01
b111 !
b111 )
12
0$
#115
1*
05
1,
0#
b1100 '
#116
b1101 '
#119
0:
0@
1$
#125
1+
0,
0"
0*
13
04
1/
b10 !
b10 )
00
0$
#128
b1110 '
#129
15
0+
1"
0*
0;
11
02
1@
0/
b1 !
b1 )
10
0%
#130
1%
#131
1,
1#
#134
1:
1$
#140
1+
0,
03
b101 !
b101 )
14
0$
#146
1;
1$
#152
0+
01
b111 !
b111 )
12
0$
#156
b1111 '
#159
1$
#165
0$
#168
b10 O
b10000 '
#169
1,
0;
11
02
0:
13
b1 !
b1 )
04
0%
#170
1%
#174
1:
1$
#180
1+
0,
03
b101 !
b101 )
14
0$
#186
1;
1$
#192
0+
01
b111 !
b111 )
12
0$
#195
1*
05
1,
0#
#198
0:
0@
1$
#204
1+
0,
0"
0*
13
04
1/
b10 !
b10 )
00
0$
#207
b10001 '
#208
b10010 '
#211
0;
1$
#217
1*
15
0+
11
b0 !
b0 )
02
0$
#220
b10011 '
#221
1"
0*
1@
0/
b1 !
b1 )
10
0%
#222
1%
#223
1,
1#
#226
1:
1$
#232
1+
0,
03
b101 !
b101 )
14
0$
#238
1;
1$
#244
0+
01
b111 !
b111 )
12
0$
#247
1*
05
1,
0#
#250
0:
0@
1$
#256
1+
0,
0"
0*
13
04
1/
b10 !
b10 )
00
0$
#259
1*
15
1"
1,
1#
#260
b10100 '
#263
0;
1:
1@
1$
#269
0,
0*
11
02
03
14
0/
b101 !
b101 )
10
0$
#272
b11 O
b10101 '
#273
0+
1,
0:
13
b1 !
b1 )
04
0%
#274
1%
#278
1:
1$
#284
1+
0,
03
b101 !
b101 )
14
0$
#287
1,
0#
#290
1;
0:
1$
#296
1*
05
0,
01
12
13
b11 !
b11 )
04
0$
#299
b10110 '
#300
b10111 '
#303
0;
0@
1$
#309
15
0+
0"
1*
11
02
1/
b0 !
b0 )
00
0$
#312
b11000 '
#313
1"
0*
1@
0/
b1 !
b1 )
10
0%
#314
1%
#315
1,
1#
#318
1:
1$
#324
1+
0,
03
b101 !
b101 )
14
0$
#327
1,
0#
#330
1;
0:
1$
#336
1*
05
0,
01
12
13
b11 !
b11 )
04
0$
#339
0*
15
1,
1#
#340
b11001 '
#343
0;
1:
1$
#349
0,
11
02
03
b101 !
b101 )
14
0$
#352
b0 O
b11010 '
#353
0+
1,
0:
13
b1 !
b1 )
04
0%
#354
1%
#358
1:
1$
#364
1+
0,
03
b101 !
b101 )
14
0$
#370
1;
1$
#376
0+
01
b111 !
b111 )
12
0$
#379
1*
05
1,
0#
#382
0:
0@
1$
#388
1+
0,
0"
0*
13
04
1/
b10 !
b10 )
00
0$
#394
0;
1$
#400
1*
15
0+
11
b0 !
b0 )
02
0$
#403
b11011 '
#404
b11100 '
#407
1@
1$
#413
1"
0*
0/
b1 !
b1 )
10
0$
#416
b11101 '
#417
0%
#418
1%
#419
1,
1#
#422
1:
1$
#428
1+
0,
03
b101 !
b101 )
14
0$
#434
1;
1$
#440
0+
01
b111 !
b111 )
12
0$
#443
1*
05
1,
0#
#446
0:
0@
1$
#452
1+
0,
0"
0*
13
04
1/
b10 !
b10 )
00
0$
#458
0;
1$
#464
1*
15
0+
11
b0 !
b0 )
02
0$
#467
1"
1,
1#
#468
b11110 '
#471
1:
1@
1$
#477
1+
0,
0*
03
14
0/
b101 !
b101 )
10
0$
#480
b1 O
b11111 '
#481
0+
1,
0:
13
b1 !
b1 )
04
0%
#482
1%
#483
0,
0#
#484
b100000 '
#487
1$
#493
0$
#496
1,
1#
b100001 '
#497
b100010 '
#500
1:
1$
#506
1+
0,
03
b101 !
b101 )
14
0$
#509
b100011 '
#510
b100100 '
#513
1;
1$
#519
0+
01
b111 !
b111 )
12
0$
#522
b100101 '
#523
b100110 '
#526
1$
#532
0$
#535
1*
05
1,
0#
b100111 '
#536
b101000 '
#539
0:
0@
1$
#545
1+
0,
0"
0*
13
04
1/
b10 !
b10 )
00
0$
#548
1*
15
1"
1,
1#
b101001 '
#549
b101010 '
#552
0;
1:
1@
1$
#558
0,
0*
11
02
03
14
0/
b101 !
b101 )
10
0$
#561
b101011 '
#562
b101100 '
#565
1;
1$
#571
0+
01
b111 !
b111 )
12
0$
#574
1*
05
1,
0#
b101101 '
#575
b101110 '
#578
0:
0@
1$
#584
1+
0,
0"
0*
13
04
1/
b10 !
b10 )
00
0$
#587
b101111 '
#588
b110000 '
#591
0;
1$
#597
1*
15
0+
11
b0 !
b0 )
02
0$
#600
b110001 '
#601
b110010 '
#604
1@
1$
#610
1"
0*
0/
b1 !
b1 )
10
0$
#613
1,
1#
b110011 '
#614
b110100 '
#617
1:
1$
#623
1+
0,
03
b101 !
b101 )
14
0$
#626
b110101 '
#627
b110110 '
#630
1;
1$
#636
0+
01
b111 !
b111 )
12
0$
#639
1*
05
1,
0#
b110111 '
#640
b111000 '
#643
0:
0@
1$
#649
1+
0,
0"
0*
13
04
1/
b10 !
b10 )
00
0$
#652
b111001 '
#653
b111010 '
#656
0;
1$
#662
1*
15
0+
11
b0 !
b0 )
02
0$
#665
1"
1,
1#
b111011 '
#666
b111100 '
#669
1:
1@
1$
#675
1+
0,
0*
03
14
0/
b101 !
b101 )
10
0$
#678
1,
0#
b111101 '
#679
b111110 '
#682
1;
0:
1$
#688
1*
05
0,
01
12
13
b11 !
b11 )
04
0$
#691
0*
15
1,
1#
b111111 '
#692
b1000000 '
#695
0;
1:
1$
#701
0,
11
02
03
b101 !
b101 )
14
0$
#704
1,
0#
b1000001 '
#705
b1000010 '
#708
1;
0:
1$
#714
1*
05
0,
01
12
13
b11 !
b11 )
04
0$
#717
b1000011 '
#718
b1000100 '
#721
0;
0@
1$
#727
15
0+
0"
1*
11
02
1/
b0 !
b0 )
00
0$
